This is BibTeX, Version 0.99c (TeX Live 2009/Debian)
The top-level auxiliary file: tcc.aux
A level-1 auxiliary file: conteudo/capitulo1.aux
A level-1 auxiliary file: conteudo/capitulo2.aux
A level-1 auxiliary file: conteudo/capitulo3.aux
A level-1 auxiliary file: conteudo/capitulo4.aux
A level-1 auxiliary file: conteudo/capitulo5.aux
The style file: abnt.bst
Database file #1: tcc.bib
You've used 28 entries,
            2371 wiz_defined-function locations,
            755 strings with 8148 characters,
and the built_in function-call counts, 22701 in all, are:
= -- 2426
> -- 105
< -- 315
+ -- 1256
- -- 28
* -- 1118
:= -- 1790
add.period$ -- 147
call.type$ -- 28
change.case$ -- 231
chr.to.int$ -- 0
cite$ -- 28
duplicate$ -- 3056
empty$ -- 1397
format.name$ -- 245
if$ -- 4974
int.to.chr$ -- 0
int.to.str$ -- 0
missing$ -- 0
newline$ -- 59
num.names$ -- 140
pop$ -- 529
preamble$ -- 1
purify$ -- 28
quote$ -- 0
skip$ -- 1333
stack$ -- 0
substring$ -- 1054
swap$ -- 1879
text.length$ -- 0
text.prefix$ -- 0
top$ -- 0
type$ -- 336
warning$ -- 0
while$ -- 168
width$ -- 0
write$ -- 30
